Python for Data Analysis: A gentle introduction - 4 Data Wrangling and Manipulation
…
4.1.4 select() function

We may be interested in some of the columns in the gampminder dataframe, let say, for example, “country” and “pop” variables and discard others; we use the select() function:

library(dplyr)
select(gapminder, "country", "pop")

# A tibble: 1,704 × 2
   country          pop
   <chr>          <int>
 1 Afghanistan  8425333
 2 Afghanistan  9240934
 3 Afghanistan 10267083
 4 Afghanistan 11537966
 5 Afghanistan 13079460
 6 Afghanistan 14880372
 7 Afghanistan 12881816
 8 Afghanistan 13867957
 9 Afghanistan 16317921
10 Afghanistan 22227415
# ℹ 1,694 more rows
…
The pipe operator (|>)

The best way to work with R, esepcially tidyverse, is using the pipe (|>) operator. The pipe connect various tasks, for example:

gapminder |>
  select(country, pop)

# A tibble: 1,704 × 2
   country          pop
   <chr>          <int>
 1 Afghanistan  8425333
 2 Afghanistan  9240934
 3 Afghanistan 10267083
 4 Afghanistan 11537966
 5 Afghanistan 13079460
 6 Afghanistan 14880372
 7 Afghanistan 12881816
 8 Afghanistan 13867957
 9 Afghanistan 16317921
10 Afghanistan 22227415
# ℹ 1,694 more rows
…
Then select the fourth option, “use native pipe operator, |>”

Click ‘Apply’

You can use the short cut Ctrl + Shift + M If you using Windows to insert the pipe instead of typing it. If you are using Mac, use Cmd + Shift + M.

4.1.4 Return to select() function

As I have said, select() only return the columns specified

gapminder %>% 
  select(country, pop)

# A tibble: 1,704 × 2
   country          pop
   <chr>          <int>
 1 Afghanistan  8425333
 2 Afghanistan  9240934
 3 Afghanistan 10267083
 4 Afghanistan 11537966
 5 Afghanistan 13079460
 6 Afghanistan 14880372
 7 Afghanistan 12881816
 8 Afghanistan 13867957
 9 Afghanistan 16317921
10 Afghanistan 22227415
# ℹ 1,694 more rows

Also, notice that we selected “country’ and”pop” columns but did not save them and assigned to an object. To store the results into an object, we have to use assignment operator (<-):

gapminder_selected <- gapminder |>
  select(country, pop)

gapminder_selected # print

# A tibble: 1,704 × 2
   country          pop
   <chr>          <int>
 1 Afghanistan  8425333
 2 Afghanistan  9240934
 3 Afghanistan 10267083
 4 Afghanistan 11537966
 5 Afghanistan 13079460
 6 Afghanistan 14880372
 7 Afghanistan 12881816
 8 Afghanistan 13867957
 9 Afghanistan 16317921
10 Afghanistan 22227415
# ℹ 1,694 more rows

Now we have saved results as gapminder_selected, and we can do other analysis with this object because we have saved it. So, in a nutshell, when you run a code without assigning results into an object, using the <- operator, results will not be saved but will be printed.

You can also select columns based by index/position. Let us select only 1st and 3rd coulmns

gapminder |> 
  select(1, 3)

# A tibble: 1,704 × 2
   country      year
   <chr>       <int>
 1 Afghanistan  1952
 2 Afghanistan  1957
 3 Afghanistan  1962
 4 Afghanistan  1967
 5 Afghanistan  1972
 6 Afghanistan  1977
 7 Afghanistan  1982
 8 Afghanistan  1987
 9 Afghanistan  1992
10 Afghanistan  1997
# ℹ 1,694 more rows

Or you can select a range of columns

gapminder |> 
  select(country:year)

# A tibble: 1,704 × 3
   country     continent  year
   <chr>       <chr>     <int>
 1 Afghanistan Asia       1952
 2 Afghanistan Asia       1957
 3 Afghanistan Asia       1962
 4 Afghanistan Asia       1967
 5 Afghanistan Asia       1972
 6 Afghanistan Asia       1977
 7 Afghanistan Asia       1982
 8 Afghanistan Asia       1987
 9 Afghanistan Asia       1992
10 Afghanistan Asia       1997
# ℹ 1,694 more rows

Here, we have select columns from country to year only.

You can also exclude certain columns by simply adding the minus (-) sign; let say we want to exclude the gdpPercap from the dataframe

gapminder |> 
  select(-gdpPercap)

# A tibble: 1,704 × 5
   country     continent  year lifeExp      pop
   <chr>       <chr>     <int>   <dbl>    <int>
 1 Afghanistan Asia       1952    28.8  8425333
 2 Afghanistan Asia       1957    30.3  9240934
 3 Afghanistan Asia       1962    32.0 10267083
 4 Afghanistan Asia       1967    34.0 11537966
 5 Afghanistan Asia       1972    36.1 13079460
 6 Afghanistan Asia       1977    38.4 14880372
 7 Afghanistan Asia       1982    39.9 12881816
 8 Afghanistan Asia       1987    40.8 13867957
 9 Afghanistan Asia       1992    41.7 16317921
10 Afghanistan Asia       1997    41.8 22227415
# ℹ 1,694 more rows
…
Let us filter based on the continent column. How many continent are there? Create a basic table first

table(gapminder$continent)

  Africa Americas     Asia   Europe  Oceania 
     624      300      396      360       24 

There are five continents. Let us filter only observations from the African continent:

africa_gapminder <- gapminder |> 
  filter(continent == "Africa")

africa_gapminder  # print 

# A tibble: 624 × 6
   country continent  year lifeExp      pop gdpPercap
   <chr>   <chr>     <int>   <dbl>    <int>     <dbl>
 1 Algeria Africa     1952    43.1  9279525     2449.
 2 Algeria Africa     1957    45.7 10270856     3014.
 3 Algeria Africa     1962    48.3 11000948     2551.
 4 Algeria Africa     1967    51.4 12760499     3247.
 5 Algeria Africa     1972    54.5 14760787     4183.
 6 Algeria Africa     1977    58.0 17152804     4910.
 7 Algeria Africa     1982    61.4 20033753     5745.
 8 Algeria Africa     1987    65.8 23254956     5681.
 9 Algeria Africa     1992    67.7 26298373     5023.
10 Algeria Africa     1997    69.2 29072015     4797.
# ℹ 614 more rows
…
Let us filter a numeric column; for example, we may want to filter countries with population of above 50 million and assign results to an object named high_pop:

high_pop <- gapminder |> 
  filter(pop > 50000000)

high_pop ## print

# A tibble: 190 × 6
   country    continent  year lifeExp       pop gdpPercap
   <chr>      <chr>     <int>   <dbl>     <int>     <dbl>
 1 Bangladesh Asia       1957    39.3  51365468      662.
 2 Bangladesh Asia       1962    41.2  56839289      686.
 3 Bangladesh Asia       1967    43.5  62821884      721.
 4 Bangladesh Asia       1972    45.3  70759295      630.
 5 Bangladesh Asia       1977    46.9  80428306      660.
 6 Bangladesh Asia       1982    50.0  93074406      677.
 7 Bangladesh Asia       1987    52.8 103764241      752.
 8 Bangladesh Asia       1992    56.0 113704579      838.
 9 Bangladesh Asia       1997    59.4 123315288      973.
10 Bangladesh Asia       2002    62.0 135656790     1136.
# ℹ 180 more rows
You can also combine 2 conditions. Let us say we want:

countries in Africa

the year 2007

africa_2007 <- gapminder |> 
  filter(continent == "Africa", year == 2007)

Filter rows from the Africa OR Asia

gapminder |> 
  filter(continent == "Africa" | continent == "Asia")

# A tibble: 1,020 × 6
   country     continent  year lifeExp      pop gdpPercap
   <chr>       <chr>     <int>   <dbl>    <int>     <dbl>
 1 Afghanistan Asia       1952    28.8  8425333      779.
 2 Afghanistan Asia       1957    30.3  9240934      821.
 3 Afghanistan Asia       1962    32.0 10267083      853.
 4 Afghanistan Asia       1967    34.0 11537966      836.
 5 Afghanistan Asia       1972    36.1 13079460      740.
 6 Afghanistan Asia       1977    38.4 14880372      786.
 7 Afghanistan Asia       1982    39.9 12881816      978.
 8 Afghanistan Asia       1987    40.8 13867957      852.
 9 Afghanistan Asia       1992    41.7 16317921      649.
10 Afghanistan Asia       1997    41.8 22227415      635.
# ℹ 1,010 more rows
…
