Python for Data Analysis: A gentle introduction - 5 Data Manipulation Part 2
…
Then compute a new column:

fake_df <- fake_df |> 
  mutate(age_group = case_when(
    age >= 1 & age <=12 ~ "child",
    age >= 13 & age <= 17 ~ "adolescent",
    age >= 18 & age <= 34 ~ "young adult",
    age >= 35 & age <= 55 ~ "adult",
    age > 55 ~ "older adult"
  ))

fake_df

# A tibble: 50 × 3
   gender   age age_group  
   <chr>  <int> <chr>      
 1 male      18 young adult
 2 female    11 child      
 3 female    55 adult      
 4 female    62 older adult
 5 female    67 older adult
 6 female    27 young adult
 7 female    41 adult      
 8 male       6 child      
 9 female    10 child      
10 female    51 adult      
# ℹ 40 more rows
…
